{
	"info": {
		"_postman_id": "f4082774-ae0d-470e-80d6-afea84de2725",
		"name": "Pokedex",
		"schema": "https://schema.getpostman.com/json/collection/v2.1.0/collection.json"
	},
	"item": [
		{
			"name": "Pokemon",
			"item": [
				{
					"name": "GetAll",
					"request": {
						"method": "GET",
						"header": [],
						"url": {
							"raw": "localhost:3000/api/v1/pokemons",
							"host": [
								"localhost"
							],
							"port": "3000",
							"path": [
								"api",
								"v1",
								"pokemons"
							]
						}
					},
					"response": []
				},
				{
					"name": "GetAllOwned",
					"request": {
						"method": "GET",
						"header": [],
						"url": {
							"raw": "localhost:3000/api/v1/pokemons/mypokemon/owned",
							"host": [
								"localhost"
							],
							"port": "3000",
							"path": [
								"api",
								"v1",
								"pokemons",
								"mypokemon",
								"owned"
							]
						}
					},
					"response": []
				},
				{
					"name": "GetById",
					"request": {
						"method": "GET",
						"header": [],
						"url": {
							"raw": "localhost:3000/api/v1/pokemons/1",
							"host": [
								"localhost"
							],
							"port": "3000",
							"path": [
								"api",
								"v1",
								"pokemons",
								"1"
							]
						}
					},
					"response": []
				},
				{
					"name": "Post",
					"request": {
						"method": "POST",
						"header": [],
						"body": {
							"mode": "raw",
							"raw": "{\r\n  \"id\":132,\r\n  \"name\":\"Ditto\",\r\n  \"species\":{\r\n    \"name\":\"Ditto\",\r\n    \"url\":\"https://pokeapi.co/api/v2/pokemon-species/132/\"\r\n  },\r\n  \"moves\":[{\r\n    \"move\":{\r\n      \"name\":\"Transform\",\r\n      \"url\":\"https://pokeapi.co/api/v2/move/144/\"\r\n    }\r\n  }],\r\n  \"types\":[\r\n    {\r\n    \"slot\": 1,\r\n    \"type\":{\r\n      \"name\":\"Normal\",\r\n      \"url\": \"https://pokeapi.co/api/v2/type/1/\"\r\n      }\r\n    }\r\n  ]\r\n}",
							"options": {
								"raw": {
									"language": "json"
								}
							}
						},
						"url": {
							"raw": "localhost:3000/api/v1/pokemons",
							"host": [
								"localhost"
							],
							"port": "3000",
							"path": [
								"api",
								"v1",
								"pokemons"
							]
						}
					},
					"response": []
				},
				{
					"name": "Put",
					"request": {
						"method": "PUT",
						"header": [],
						"body": {
							"mode": "raw",
							"raw": "{\r\n  \"name\":\"Ditto\"\r\n}",
							"options": {
								"raw": {
									"language": "json"
								}
							}
						},
						"url": {
							"raw": "localhost:3000/api/v1/pokemons/132",
							"host": [
								"localhost"
							],
							"port": "3000",
							"path": [
								"api",
								"v1",
								"pokemons",
								"132"
							]
						}
					},
					"response": []
				},
				{
					"name": "Delete",
					"request": {
						"method": "DELETE",
						"header": [],
						"body": {
							"mode": "raw",
							"raw": "",
							"options": {
								"raw": {
									"language": "json"
								}
							}
						},
						"url": {
							"raw": "localhost:3000/api/v1/pokemons/3",
							"host": [
								"localhost"
							],
							"port": "3000",
							"path": [
								"api",
								"v1",
								"pokemons",
								"3"
							]
						}
					},
					"response": []
				},
				{
					"name": "Catch",
					"request": {
						"method": "GET",
						"header": [],
						"url": {
							"raw": "localhost:3000/api/v1/pokemons/catch/1",
							"host": [
								"localhost"
							],
							"port": "3000",
							"path": [
								"api",
								"v1",
								"pokemons",
								"catch",
								"1"
							]
						}
					},
					"response": []
				},
				{
					"name": "Release",
					"request": {
						"method": "GET",
						"header": [],
						"url": {
							"raw": "localhost:3000/api/v1/pokemons/release/1",
							"host": [
								"localhost"
							],
							"port": "3000",
							"path": [
								"api",
								"v1",
								"pokemons",
								"release",
								"1"
							]
						}
					},
					"response": []
				},
				{
					"name": "Rename",
					"request": {
						"method": "GET",
						"header": [],
						"url": {
							"raw": "localhost:3000/api/v1/pokemons/rename/1",
							"host": [
								"localhost"
							],
							"port": "3000",
							"path": [
								"api",
								"v1",
								"pokemons",
								"rename",
								"1"
							]
						}
					},
					"response": []
				}
			]
		}
	]
}